{
    "workbench.colorTheme": "Default Dark+",
    "extensions.webWorker": true,
    "browser-preview.chromeExecutable": "/usr/bin/chromium-browser",
    "sonarlint.ls.javaHome": "/usr/lib/jvm/java-11-amazon-corretto.x86_64/",
    "sonarlint.disableTelemetry": true,
    "editor.acceptSuggestionOnEnter": "off",
    "terminal.integrated.cwd": "/work",
    "browser-preview.format": "png",
    "terminal.integrated.shell.linux": "/bin/bash",
